 running on   24 total cores
 distrk:  each k-point on   24 cores,    1 groups
 distr:  one band on    1 cores,   24 groups
 using from now: INCAR
 vasp.5.4.4.18Apr17-6-g9f103f2a35 (build Feb 27 2019 15:28:56) complex

 POSCAR found :  1 types and       2 ions
 scaLAPACK will be used

 -----------------------------------------------------------------------------
|                                                                             |
|           W    W    AA    RRRRR   N    N  II  N    N   GGGG   !!!           |
|           W    W   A  A   R    R  NN   N  II  NN   N  G    G  !!!           |
|           W    W  A    A  R    R  N N  N  II  N N  N  G       !!!           |
|           W WW W  AAAAAA  RRRRR   N  N N  II  N  N N  G  GGG   !            |
|           WW  WW  A    A  R   R   N   NN  II  N   NN  G    G                |
|           W    W  A    A  R    R  N    N  II  N    N   GGGG   !!!           |
|                                                                             |
|      For optimal performance we recommend to set                            |
|        NCORE= 4 - approx SQRT( number of cores)                             |
|      NCORE specifies how many cores store one orbital (NPAR=cpu/NCORE).     |
|      This setting can  greatly improve the performance of VASP for DFT.     |
|      The default,   NCORE=1            might be grossly inefficient         |
|      on modern multi-core architectures or massively parallel machines.     |
|      Do your own testing !!!!                                               |
|      Unfortunately you need to use the default for GW and RPA calculations. |
|      (for HF NCORE is supported but not extensively tested yet)             |
|                                                                             |
 -----------------------------------------------------------------------------

 LDA part: xc-table for Ceperly-Alder, standard interpolation
 POSCAR found :  1 types and       2 ions
 found WAVECAR, reading the header
 POSCAR, INCAR and KPOINTS ok, starting setup
 FFT: planning ...
 reading WAVECAR
 the WAVECAR file was read successfully
 initial charge from wavefunction
 entering main loop
       N       E                     dE             d eps       ncg     rms          rms(c)
DAV:   1    -0.659575193949E+01   -0.65958E+01   -0.43366E-01    48   0.958E-01    0.533E-01
DAV:   2    -0.659020042483E+01    0.55515E-02   -0.44707E-03    72   0.707E-02    0.285E-01
DAV:   3    -0.658854680567E+01    0.16536E-02   -0.51261E-03    72   0.689E-02    0.242E-02
DAV:   4    -0.658860468221E+01   -0.57877E-04   -0.10564E-05    48   0.294E-03
   1 F= -.65886047E+01 E0= -.65924700E+01  d E =-.658860E+01
 BRION: g(F)=  0.980E-01 g(S)=  0.000E+00
 bond charge predicted
       N       E                     dE             d eps       ncg     rms          rms(c)
DAV:   1    -0.655424042553E+01    0.34306E-01   -0.25807E+00    48   0.241E+00    0.744E-01
DAV:   2    -0.654330046594E+01    0.10940E-01   -0.10051E-02    48   0.111E-01    0.398E-01
DAV:   3    -0.654091535496E+01    0.23851E-02   -0.10389E-02    72   0.975E-02    0.265E-02
DAV:   4    -0.654107719916E+01   -0.16184E-03   -0.22969E-05    48   0.498E-03
   2 F= -.65410772E+01 E0= -.65449425E+01  d E =0.475275E-01
 BRION: g(F)=  0.274E+00 g(S)=  0.000E+00 retain N=  1 mean eig= 0.37
 eig:   0.374
 bond charge predicted
       N       E                     dE             d eps       ncg     rms          rms(c)
DAV:   1    -0.660695463937E+01   -0.66039E-01   -0.97178E-01    48   0.144E+00    0.452E-01
DAV:   2    -0.660294862635E+01    0.40060E-02   -0.43446E-03    72   0.796E-02    0.244E-01
DAV:   3    -0.660213961110E+01    0.80902E-03   -0.39608E-03    72   0.596E-02
   3 F= -.66021396E+01 E0= -.66060049E+01  d E =-.610624E-01
 BRION: g(F)=  0.440E-02 g(S)=  0.000E+00 retain N=  1 mean eig= 0.43
 eig:   0.429
 bond charge predicted
       N       E                     dE             d eps       ncg     rms          rms(c)
DAV:   1    -0.660303478477E+01   -0.86158E-04   -0.21866E-02    48   0.220E-01    0.726E-02
DAV:   2    -0.660293258308E+01    0.10220E-03   -0.10625E-04    72   0.120E-02
   4 F= -.66029326E+01 E0= -.66067979E+01  d E =-.792972E-03
 BRION: g(F)=  0.137E-03 g(S)=  0.000E+00 retain N=  1 mean eig= 0.36
 eig:   0.364
 reached required accuracy - stopping structural energy minimisation
 writing wavefunctions
